{
    "name": "Employee",
    "alias": "employee",
    "description": "",
    "keywords": [],
    "active": 1,
    "order": 1,
    "providers": [
        "Modules\\Employee\\Providers\\EmployeeServiceProvider"
    ],
    "aliases": {},
    "files": [
        "start.php"
    ],
    "requires": []
}
